{
    "name": "error",
    "version": "0.0.1",
    "dependencies": {
        "assertful": "ssh://git@bitbucket.uxserver.espial.com:7999/uxfp/assertful.git@develop",
        "jasmine": "ssh://git@bitbucket.uxserver.espial.com:7999/tpp/jasmine.git@develop",
        "requirejs": "ssh://git@bitbucket.uxserver.espial.com:7999/tpp/requirejs.git@develop",
        "logger": "ssh://git@bitbucket.uxserver.espial.com:7999/uxfp/logger.git@develop",
        "defineclass": "ssh://git@bitbucket.uxserver.espial.com:7999/uxfp/defineclass.git@develop"
    }
}
